{
  "globalDependencies": {
    "async": "registry:dt/async#2.0.1+20160804113311",
    "body-parser": "registry:dt/body-parser#0.0.0+20160317120654",
    "compression": "registry:dt/compression#0.0.0+20160501162003",
    "cookie-parser": "registry:dt/cookie-parser#1.3.4+20160316155526",
    "es6-shim": "registry:dt/es6-shim#0.31.2+20160317120654",
    "express": "registry:dt/express#4.0.0+20160317120654",
    "express-serve-static-core": "registry:dt/express-serve-static-core#0.0.0+20160322035842",
    "mime": "registry:dt/mime#0.0.0+20160316155526",
    "node": "registry:dt/node#4.0.0+20160412142033",
    "nodemailer": "registry:dt/nodemailer#1.3.2+20160805030905",
    "serve-static": "registry:dt/serve-static#0.0.0+20160317120654"
  },
  "dependencies": {
    "lodash": "registry:npm/lodash#4.0.0+20160723033700",
    "mongodb": "registry:npm/mongodb#2.1.0+20160721204323"
  }
}
